This is BibTeX, Version 0.99d (TeX Live 2017/Arch Linux)
Capacity: max_strings=100000, hash_size=100000, hash_prime=85009
The top-level auxiliary file: main.aux
The style file: plain.bst
Database file #1: biblio.bib
You've used 8 entries,
            2118 wiz_defined-function locations,
            533 strings with 5131 characters,
and the built_in function-call counts, 1797 in all, are:
= -- 181
> -- 77
< -- 0
+ -- 32
- -- 24
* -- 79
:= -- 333
add.period$ -- 32
call.type$ -- 8
change.case$ -- 28
chr.to.int$ -- 0
cite$ -- 8
duplicate$ -- 72
empty$ -- 145
format.name$ -- 24
if$ -- 363
int.to.chr$ -- 0
int.to.str$ -- 8
missing$ -- 0
newline$ -- 51
num.names$ -- 16
pop$ -- 40
preamble$ -- 1
purify$ -- 28
quote$ -- 0
skip$ -- 40
stack$ -- 0
substring$ -- 40
swap$ -- 16
text.length$ -- 0
text.prefix$ -- 0
top$ -- 0
type$ -- 32
warning$ -- 0
while$ -- 16
width$ -- 9
write$ -- 94
