\relax 
\providecommand\hyper@newdestlabel[2]{}
\providecommand\HyperFirstAtBeginDocument{\AtBeginDocument}
\HyperFirstAtBeginDocument{\ifx\hyper@anchor\@undefined
\global\let\oldcontentsline\contentsline
\gdef\contentsline#1#2#3#4{\oldcontentsline{#1}{#2}{#3}}
\global\let\oldnewlabel\newlabel
\gdef\newlabel#1#2{\newlabelxx{#1}#2}
\gdef\newlabelxx#1#2#3#4#5#6{\oldnewlabel{#1}{{#2}{#3}}}
\AtEndDocument{\ifx\hyper@anchor\@undefined
\let\contentsline\oldcontentsline
\let\newlabel\oldnewlabel
\fi}
\fi}
\global\let\hyper@last\relax 
\gdef\HyperFirstAtBeginDocument#1{#1}
\providecommand\HyField@AuxAddToFields[1]{}
\providecommand\HyField@AuxAddToCoFields[2]{}
\providecommand\@newglossary[4]{}
\@newglossary{main}{glg}{gls}{glo}
\@newglossary{acronym}{alg}{acr}{acn}
\providecommand\@glsorder[1]{}
\providecommand\@istfilename[1]{}
\@istfilename{main.ist}
\@glsorder{word}
\citation{passwd}
\citation{nss}
\@writefile{toc}{\contentsline {section}{\numberline {1}Introduction}{2}{section.1}}
\@writefile{tdo}{\contentsline {todo}{\color@fb@x {}{black}{}{orange}{\leavevmode {\color  {orange}o}}\ Problem = Any user can read and write files on any other user's machines}{2}{section*.2}}
\pgfsyspdfmark {pgfid1}{11433586}{40033381}
\@writefile{tdo}{\contentsline {todo}{\color@fb@x {}{black}{}{blue!40}{\leavevmode {\color  {blue!40}o}}\ plan9port}{2}{section*.3}}
\pgfsyspdfmark {pgfid2}{11433586}{38548350}
\@writefile{tdo}{\contentsline {todo}{\color@fb@x {}{black}{}{orange}{\leavevmode {\color  {orange}o}}\ Check that vrs's role is indeed fulfilled by the kernel on Plan 9. L'\IeC {\'e}crire quelque part plus pr\IeC {\'e}cis\IeC {\'e}ment. Comparer avec SSH}{2}{section*.4}}
\pgfsyspdfmark {pgfid3}{11433586}{36602928}
\@writefile{tdo}{\contentsline {todo}{\color@fb@x {}{black}{}{orange}{\leavevmode {\color  {orange}o}}\ In Linux processes priviledged, in Plan 9 processes are trusted. Priviledge in Linux is a bit like Capitalism, one must be born that way}{2}{section*.5}}
\pgfsyspdfmark {pgfid4}{12088947}{30126319}
\@writefile{tdo}{\contentsline {todo}{\color@fb@x {}{black}{}{orange}{\leavevmode {\color  {orange}o}}\ The PAM module takes the role of https://9p.io/magic/man2html/2/auth}{2}{section*.6}}
\pgfsyspdfmark {pgfid5}{12088947}{27579872}
\@writefile{tdo}{\contentsline {todo}{\color@fb@x {}{black}{}{orange}{\leavevmode {\color  {orange}o}}\ vrs is a bit of an equivalent of https://9p.io/magic/man2html/8/listen listen1 except and it authenticates users like https://9p.io/magic/man2html/8/ipserv rexexec and }{2}{section*.7}}
\pgfsyspdfmark {pgfid6}{12088947}{24640209}
\@writefile{toc}{\contentsline {section}{\numberline {2}Authenticating on the network}{2}{section.2}}
\@writefile{toc}{\contentsline {subsection}{\numberline {2.1}Our use of the existing tools from \texttt  {plan9port}}{2}{subsection.2.1}}
\newlabel{sec:plan9port}{{2.1}{2}{Our use of the existing tools from \texttt {plan9port}}{subsection.2.1}{}}
\@writefile{toc}{\contentsline {paragraph}{}{2}{section*.8}}
\@writefile{lof}{\contentsline {figure}{\numberline {1}{\ignorespaces What we want to achieve Alice accesses to her personal files stored on a distant server as if they were located on her machine.  The alice folder on \texttt  {Bermuda} is owned by the  networkwide user \texttt  {alice}\relax }}{2}{figure.caption.9}}
\providecommand*\caption@xref[2]{\@setref\relax\@undefined{#1}}
\newlabel{aimfig}{{1}{2}{What we want to achieve\\Alice accesses to her personal files stored on a distant server as if they were located on her machine. \\The alice folder on \texttt {Bermuda} is owned by the \\networkwide user \texttt {alice}\relax }{figure.caption.9}{}}
\@writefile{toc}{\contentsline {paragraph}{}{2}{section*.10}}
\citation{factotum}
\citation{v9fs}
\citation{srv}
\citation{plan9port}
\citation{9pserve}
\@writefile{lof}{\contentsline {figure}{\numberline {2}{\ignorespaces A central factotum authority is queried by Linux kernels to identify \texttt  {alice} on the network\relax }}{3}{figure.caption.11}}
\newlabel{identifyfig}{{2}{3}{A central factotum authority is queried by Linux kernels to identify \texttt {alice} on the network\relax }{figure.caption.11}{}}
\@writefile{toc}{\contentsline {paragraph}{}{3}{section*.12}}
\@writefile{toc}{\contentsline {paragraph}{}{3}{section*.14}}
\@writefile{toc}{\contentsline {paragraph}{}{3}{section*.16}}
\@writefile{lof}{\contentsline {figure}{\numberline {3}{\ignorespaces Authenticating Alice on Bermuda is  a conversation between two factotum processes\relax }}{3}{figure.caption.13}}
\newlabel{twofactotumfig}{{3}{3}{Authenticating Alice on Bermuda is \\a conversation between two factotum processes\relax }{figure.caption.13}{}}
\@writefile{lof}{\contentsline {figure}{\numberline {4}{\ignorespaces On Atlantis, \texttt  {srv} authenticates and connects to the \gls {sa} server on the client's behalf. v9fs then mounts Alice's directory on Atlantis file system\relax }}{3}{figure.caption.15}}
\newlabel{srvfig}{{4}{3}{On Atlantis, \texttt {srv} authenticates and connects to the \gls {sa} server on the client's behalf. v9fs then mounts Alice's directory on Atlantis file system\relax }{figure.caption.15}{}}
\citation{secuplan9}
\citation{9p}
\citation{9p}
\citation{9p}
\@writefile{lof}{\contentsline {figure}{\numberline {5}{\ignorespaces On Bermuda, \texttt  {9pserve} posts a network service so that security-agnostic servers may be dialed by remote clients\relax }}{4}{figure.caption.17}}
\newlabel{9pservefig}{{5}{4}{On Bermuda, \texttt {9pserve} posts a network service so that security-agnostic servers may be dialed by remote clients\relax }{figure.caption.17}{}}
\@writefile{toc}{\contentsline {subsection}{\numberline {2.2}Implementing a 9P server able to authenticate and demultiplex client connections}{4}{subsection.2.2}}
\newlabel{sec:vrs}{{2.2}{4}{Implementing a 9P server able to authenticate and demultiplex client connections}{subsection.2.2}{}}
\@writefile{toc}{\contentsline {paragraph}{}{4}{section*.18}}
\@writefile{toc}{\contentsline {paragraph}{}{4}{section*.21}}
\@writefile{lof}{\contentsline {figure}{\numberline {6}{\ignorespaces \texttt  {9pserve} multiplexes several client conversations to a single conversation with \texttt  {vrs}.  \texttt  {9pserve} maintains a tag mapping to do so.  \texttt  {vrs} redistributes authentified connections to \gls {ntsa} servers\relax }}{5}{figure.caption.19}}
\newlabel{vrsincome}{{6}{5}{\texttt {9pserve} multiplexes several client conversations to a single conversation with \texttt {vrs}. \\\texttt {9pserve} maintains a tag mapping to do so.\\ \texttt {vrs} redistributes authentified connections to \gls {ntsa} servers\relax }{figure.caption.19}{}}
\@writefile{lof}{\contentsline {figure}{\numberline {7}{\ignorespaces \texttt  {vrs} multiplexes several \gls {ntsa} server conversations to a single conversation with \texttt  {9pserve}.   \texttt  {vrs} maintains an fid mapping to do so.  \texttt  {9pserve} redistributes each reply to the right client\relax }}{6}{figure.caption.20}}
\newlabel{vrsoutcome}{{7}{6}{\texttt {vrs} multiplexes several \gls {ntsa} server conversations to a single conversation with \texttt {9pserve}. \\ \texttt {vrs} maintains an fid mapping to do so. \\\texttt {9pserve} redistributes each reply to the right client\relax }{figure.caption.20}{}}
\citation{9p}
\@writefile{toc}{\contentsline {paragraph}{}{7}{section*.22}}
\@writefile{toc}{\contentsline {paragraph}{}{7}{section*.23}}
\@writefile{toc}{\contentsline {paragraph}{}{7}{section*.24}}
\@writefile{toc}{\contentsline {section}{\numberline {3}How to switch identity}{7}{section.3}}
\@writefile{toc}{\contentsline {subsection}{\numberline {3.1}Delegating the authentication to the PAM library}{7}{subsection.3.1}}
\newlabel{pampar}{{3.1}{7}{Delegating the authentication to the PAM library}{subsection.3.1}{}}
\@writefile{lof}{\contentsline {figure}{\numberline {8}{\ignorespaces Complete diagram On Bermuda, the combination of \texttt  {9pserve} and \texttt  {vrs} turns the \gls {sa} server into a \gls {ntsa} child process\relax }}{8}{figure.caption.25}}
\newlabel{completefig}{{8}{8}{Complete diagram\\On Bermuda, the combination of \texttt {9pserve} and \texttt {vrs} turns the \gls {sa} server into a \gls {ntsa} child process\relax }{figure.caption.25}{}}
\@writefile{toc}{\contentsline {subsection}{\numberline {3.2}Extending the UNIX user database with Name Service Switch (NSS)}{8}{subsection.3.2}}
\newlabel{nsspar}{{3.2}{8}{Extending the UNIX user database with Name Service Switch (NSS)}{subsection.3.2}{}}
\@writefile{toc}{\contentsline {section}{\numberline {4}Conclusion}{9}{section.4}}
\citation{plan9authlinux}
\citation{v9fs}
\citation{v9fs}
\citation{secuplan9}
\@writefile{toc}{\contentsline {section}{\numberline {5}Related Works}{10}{section.5}}
\@writefile{toc}{\contentsline {subsection}{\numberline {5.1}Comparison with Plan 9}{10}{subsection.5.1}}
\@writefile{tdo}{\contentsline {todo}{\color@fb@x {}{black}{}{orange}{\leavevmode {\color  {orange}o}}\ Diviser en sous sous sections ? NT d'abord SA ensuite}{10}{section*.26}}
\pgfsyspdfmark {pgfid15}{28792081}{45554398}
\@writefile{tdo}{\contentsline {todo}{\color@fb@x {}{black}{}{orange}{\leavevmode {\color  {orange}o}}\ Pour la sous section NT, est ce que 9pserve remplit le r\IeC {\^o}le de listen ?}{10}{section*.27}}
\pgfsyspdfmark {pgfid16}{28792081}{44133194}
\@writefile{tdo}{\contentsline {todo}{\color@fb@x {}{black}{}{orange}{\leavevmode {\color  {orange}o}}\ mentionner inferno's listen}{10}{section*.28}}
\pgfsyspdfmark {pgfid17}{28792081}{42712810}
\@writefile{tdo}{\contentsline {todo}{\color@fb@x {}{black}{}{orange}{\leavevmode {\color  {orange}o}}\ Je suis pas content de la phrase qui suit, reformuler}{10}{section*.29}}
\pgfsyspdfmark {pgfid18}{28792081}{13149863}
\citation{plan9port}
\citation{srv}
\citation{mount}
\citation{srv}
\citation{factotum}
\citation{secuplan9}
\@writefile{tdo}{\contentsline {todo}{\color@fb@x {}{black}{}{orange}{\leavevmode {\color  {orange}o}}\ Maybe push the discussion of linux's capabilities elsewhere along with a discussion of OpenBSD's pledge}{11}{section*.30}}
\pgfsyspdfmark {pgfid19}{11433586}{39988097}
\@writefile{tdo}{\contentsline {todo}{\color@fb@x {}{black}{}{orange}{\leavevmode {\color  {orange}o}}\ Parler de l'absence de secstore. Comparer la gestion des utilisateurs et des clefs. Voir comment on truste le factotum qui dit qui a le droit de changer d'user (dans plan9 voir els pages de man authsrv je crois)}{11}{section*.31}}
\pgfsyspdfmark {pgfid20}{11433586}{37222729}
\@writefile{toc}{\contentsline {section}{\numberline {A}Configuration}{11}{appendix.A}}
\@writefile{toc}{\contentsline {paragraph}{}{11}{section*.32}}
\@writefile{toc}{\contentsline {subsection}{\numberline {A.1}Client configuration}{11}{subsection.A.1}}
\@writefile{toc}{\contentsline {subsubsection}{\numberline {A.1.1}Prerequisites}{11}{subsubsection.A.1.1}}
\@writefile{toc}{\contentsline {paragraph}{}{11}{section*.33}}
\@writefile{toc}{\contentsline {subsubsection}{\numberline {A.1.2}Running the client}{11}{subsubsection.A.1.2}}
\@writefile{toc}{\contentsline {paragraph}{}{11}{section*.34}}
\@writefile{toc}{\contentsline {paragraph}{Connecting to a 9P server}{11}{section*.35}}
\@writefile{toc}{\contentsline {paragraph}{Authenticating with factotum}{11}{section*.36}}
\citation{secuplan9}
\citation{plan9port}
\@writefile{toc}{\contentsline {paragraph}{unmounting the ressource}{12}{section*.37}}
\@writefile{toc}{\contentsline {subsection}{\numberline {A.2}Server implementation}{12}{subsection.A.2}}
\@writefile{toc}{\contentsline {subsubsection}{\numberline {A.2.1}Abstract}{12}{subsubsection.A.2.1}}
\@writefile{toc}{\contentsline {paragraph}{}{12}{section*.38}}
\@writefile{toc}{\contentsline {subsubsection}{\numberline {A.2.2}Prerequisite}{12}{subsubsection.A.2.2}}
\@writefile{toc}{\contentsline {subsubsection}{\numberline {A.2.3}Server implementation}{12}{subsubsection.A.2.3}}
\@writefile{toc}{\contentsline {paragraph}{The vrs multiplexing daemon}{12}{section*.39}}
\@writefile{toc}{\contentsline {paragraph}{Starting vrs}{12}{section*.40}}
\citation{factotum}
\bibstyle{apalike}
\bibdata{biblio}
\bibcite{9p}{{1}{2018}{{9p}}{{}}}
\bibcite{9pserve}{{2}{2018}{{9pserve}}{{}}}
\bibcite{plan9port}{{3}{2018}{{Cox}}{{}}}
\bibcite{secuplan9}{{4}{2002}{{Cox et~al.}}{{}}}
\bibcite{factotum}{{5}{2018}{{factotum}}{{}}}
\bibcite{plan9authlinux}{{6}{2008}{{Ganti}}{{}}}
\bibcite{nss}{{7}{2018}{{GNU C Library Contributors}}{{}}}
\bibcite{mount}{{8}{2018}{{mount}}{{}}}
\bibcite{passwd}{{9}{2018}{{passwd}}{{}}}
\bibcite{srv}{{10}{2018}{{srv}}{{}}}
\bibcite{v9fs}{{11}{2005}{{{Van Hensbergen} and Minnich}}{{}}}
\@writefile{toc}{\contentsline {paragraph}{Binding vrs to a network socket}{13}{section*.41}}
\@writefile{toc}{\contentsline {subsubsection}{\numberline {A.2.4}Completing the authentication with factotum}{13}{subsubsection.A.2.4}}
