This is BibTeX, Version 0.99d (TeX Live 2017/Arch Linux)
Capacity: max_strings=100000, hash_size=100000, hash_prime=85009
The top-level auxiliary file: main.aux
The style file: plain.bst
Database file #1: biblio.bib
You've used 9 entries,
            2118 wiz_defined-function locations,
            543 strings with 5376 characters,
and the built_in function-call counts, 2096 in all, are:
= -- 210
> -- 96
< -- 0
+ -- 39
- -- 30
* -- 96
:= -- 386
add.period$ -- 36
call.type$ -- 9
change.case$ -- 33
chr.to.int$ -- 0
cite$ -- 9
duplicate$ -- 84
empty$ -- 167
format.name$ -- 30
if$ -- 427
int.to.chr$ -- 0
int.to.str$ -- 9
missing$ -- 2
newline$ -- 56
num.names$ -- 18
pop$ -- 48
preamble$ -- 1
purify$ -- 33
quote$ -- 0
skip$ -- 48
stack$ -- 0
substring$ -- 45
swap$ -- 17
text.length$ -- 0
text.prefix$ -- 0
top$ -- 0
type$ -- 34
warning$ -- 0
while$ -- 18
width$ -- 10
write$ -- 105
