\relax 
\citation{secuplan9}
\citation{rfc2119}
\@writefile{toc}{\contentsline {section}{\numberline {1}Introduction}{1}}
\@writefile{toc}{\contentsline {section}{\numberline {2}Network configuration}{1}}
\@writefile{toc}{\contentsline {paragraph}{}{1}}
\@writefile{toc}{\contentsline {paragraph}{}{1}}
\citation{srv}
\citation{mount}
\citation{srv}
\citation{factotum}
\@writefile{toc}{\contentsline {subsection}{\numberline {2.1}Client configuration}{2}}
\@writefile{toc}{\contentsline {subsubsection}{\numberline {2.1.1}Prerequisites}{2}}
\@writefile{toc}{\contentsline {paragraph}{}{2}}
\@writefile{toc}{\contentsline {subsubsection}{\numberline {2.1.2}Client implementation}{2}}
\@writefile{toc}{\contentsline {paragraph}{}{2}}
\@writefile{toc}{\contentsline {paragraph}{Connecting to a 9P server}{2}}
\@writefile{toc}{\contentsline {paragraph}{Authenticating with factotum}{2}}
\citation{u9fs}
\@writefile{toc}{\contentsline {paragraph}{unmounting the ressource}{3}}
\citation{u9fs}
\citation{xinetd}
\@writefile{toc}{\contentsline {subsection}{\numberline {2.2}Server configuration}{4}}
\@writefile{toc}{\contentsline {subsubsection}{\numberline {2.2.1}Abstract}{4}}
\@writefile{toc}{\contentsline {paragraph}{}{4}}
\@writefile{toc}{\contentsline {subsubsection}{\numberline {2.2.2}Prerequisite}{4}}
\@writefile{toc}{\contentsline {subsubsection}{\numberline {2.2.3}Server implementation}{4}}
\@writefile{toc}{\contentsline {paragraph}{Starting u9fs}{4}}
\@writefile{toc}{\contentsline {paragraph}{Binding u9fs to a network socket}{4}}
\citation{secstore}
\citation{secstored}
\citation{secstored}
\@writefile{toc}{\contentsline {subsection}{\numberline {2.3}Authentication server configuration (optional)}{5}}
\@writefile{toc}{\contentsline {paragraph}{}{5}}
\@writefile{toc}{\contentsline {section}{\numberline {3}Summary}{5}}
\@writefile{toc}{\contentsline {section}{\numberline {A}Network topology and scripts execution}{7}}
\@writefile{toc}{\contentsline {section}{\numberline {B}Client scripts}{8}}
\@writefile{toc}{\contentsline {subsection}{\numberline {B.1}Mounting/Unmounting the remote shared file tree}{8}}
\@writefile{toc}{\contentsline {subsection}{\numberline {B.2}Starting and stopping factotum agent}{9}}
\@writefile{toc}{\contentsline {section}{\numberline {C}Server scripts}{9}}
\@writefile{toc}{\contentsline {subsection}{\numberline {C.1}xinetd configuration}{9}}
\bibstyle{plain}
\bibdata{biblio}
\bibcite{rfc2119}{1}
\bibcite{factotum}{2}
\bibcite{secstore}{3}
\bibcite{secstored}{4}
\bibcite{srv}{5}
\bibcite{secuplan9}{6}
\bibcite{u9fs}{7}
\bibcite{mount}{8}
\bibcite{xinetd}{9}
