\relax 
\providecommand\hyper@newdestlabel[2]{}
\providecommand\HyperFirstAtBeginDocument{\AtBeginDocument}
\HyperFirstAtBeginDocument{\ifx\hyper@anchor\@undefined
\global\let\oldcontentsline\contentsline
\gdef\contentsline#1#2#3#4{\oldcontentsline{#1}{#2}{#3}}
\global\let\oldnewlabel\newlabel
\gdef\newlabel#1#2{\newlabelxx{#1}#2}
\gdef\newlabelxx#1#2#3#4#5#6{\oldnewlabel{#1}{{#2}{#3}}}
\AtEndDocument{\ifx\hyper@anchor\@undefined
\let\contentsline\oldcontentsline
\let\newlabel\oldnewlabel
\fi}
\fi}
\global\let\hyper@last\relax 
\gdef\HyperFirstAtBeginDocument#1{#1}
\providecommand\HyField@AuxAddToFields[1]{}
\providecommand\HyField@AuxAddToCoFields[2]{}
\providecommand\@newglossary[4]{}
\@newglossary{main}{glg}{gls}{glo}
\@newglossary{acronym}{alg}{acr}{acn}
\providecommand\@glsorder[1]{}
\providecommand\@istfilename[1]{}
\@istfilename{main.ist}
\@glsorder{word}
\@writefile{toc}{\contentsline {section}{\numberline {1}Introduction}{1}{section.1}}
\citation{plan9}
\citation{secuplan9}
\citation{9p}
\citation{plan9port}
\citation{v9fs}
\citation{gq}
\citation{pike1992use,9p}
\citation{pike1992use}
\citation{szeredi2010fuse}
\@writefile{toc}{\contentsline {section}{\numberline {2}Network-Transparent, Security-Agnostic servers and clients}{2}{section.2}}
\@writefile{toc}{\contentsline {subsection}{\numberline {2.1}Illustrative example}{2}{subsection.2.1}}
\newlabel{sec:example}{{2.1}{2}{Illustrative example}{subsection.2.1}{}}
\citation{v9fs}
\citation{jujjuri2010virtfs}
\citation{secuplan9}
\@writefile{toc}{\contentsline {subsection}{\numberline {2.2}Network Transparency with \texttt  {plan9port}}{3}{subsection.2.2}}
\newlabel{sec:plan9port}{{2.2}{3}{Network Transparency with \texttt {plan9port}}{subsection.2.2}{}}
\@writefile{toc}{\contentsline {subsubsection}{\numberline {2.2.1}u9fs owned by alice}{3}{subsubsection.2.2.1}}
\@writefile{lof}{\contentsline {figure}{\numberline {1}{\ignorespaces On \texttt  {alice}'s machine \texttt  {Atlantis}, a process \texttt  {foo} owned by \texttt  {alice} accesses \texttt  {alice}'s files on \texttt  {bob}'s machine \texttt  {Bermuda} as if those files were on \texttt  {Atlantis}. \texttt  {Bermuda}'s kernel offers the same protection as \texttt  {Atlantis}'s kernel would.\relax }}{3}{figure.caption.1}}
\providecommand*\caption@xref[2]{\@setref\relax\@undefined{#1}}
\newlabel{fig:aim}{{1}{3}{On \texttt {alice}'s machine \texttt {Atlantis}, a process \texttt {foo} owned by \texttt {alice} accesses \texttt {alice}'s files on \texttt {bob}'s machine \texttt {Bermuda} as if those files were on \texttt {Atlantis}. \texttt {Bermuda}'s kernel offers the same protection as \texttt {Atlantis}'s kernel would.\relax }{figure.caption.1}{}}
\@writefile{lof}{\contentsline {figure}{\numberline {2}{\ignorespaces The \texttt  {u9fs} process actually making changes in \texttt  {Bermuda}'s file system on behalf of \texttt  {foo} is owned by \texttt  {alice}. This means that both kernel refer to the same central authority to agree on who \texttt  {alice} is.\relax }}{3}{figure.caption.2}}
\newlabel{fig:AS}{{2}{3}{The \texttt {u9fs} process actually making changes in \texttt {Bermuda}'s file system on behalf of \texttt {foo} is owned by \texttt {alice}. This means that both kernel refer to the same central authority to agree on who \texttt {alice} is.\relax }{figure.caption.2}{}}
\citation{v9fs}
\@writefile{lof}{\contentsline {figure}{\numberline {3}{\ignorespaces Authenticating \texttt  {alice} on \texttt  {Bermuda} is  a conversation between two \texttt  {factotum} processes\relax }}{4}{figure.caption.3}}
\newlabel{fig:twofactotum}{{3}{4}{Authenticating \texttt {alice} on \texttt {Bermuda} is \\a conversation between two \texttt {factotum} processes\relax }{figure.caption.3}{}}
\@writefile{toc}{\contentsline {subsubsection}{\numberline {2.2.2}A factotum dialog}{4}{subsubsection.2.2.2}}
\newlabel{sec:dialog}{{2.2.2}{4}{A factotum dialog}{subsubsection.2.2.2}{}}
\@writefile{toc}{\contentsline {subsubsection}{\numberline {2.2.3}v9fs and srv}{4}{subsubsection.2.2.3}}
\newlabel{sec:v9fs}{{2.2.3}{4}{v9fs and srv}{subsubsection.2.2.3}{}}
\@writefile{lof}{\contentsline {figure}{\numberline {4}{\ignorespaces \texttt  {srv} authenticates \texttt  {alice} by relaying information between her \texttt  {factotum} and the server, and then relays 9P messages between the server and the UNIX socket. \texttt  {v9fs} talks 9P to the socket to offer a virtual directory on \texttt  {Atlantis}' file system\relax }}{4}{figure.caption.4}}
\newlabel{fig:srv}{{4}{4}{\texttt {srv} authenticates \texttt {alice} by relaying information between her \texttt {factotum} and the server, and then relays 9P messages between the server and the UNIX socket. \texttt {v9fs} talks 9P to the socket to offer a virtual directory on \texttt {Atlantis}' file system\relax }{figure.caption.4}{}}
\@writefile{toc}{\contentsline {subsubsection}{\numberline {2.2.4}9pserve}{4}{subsubsection.2.2.4}}
\newlabel{sec:9pserve}{{2.2.4}{4}{9pserve}{subsubsection.2.2.4}{}}
\@writefile{lof}{\contentsline {figure}{\numberline {5}{\ignorespaces On \texttt  {Bermuda}, \texttt  {9pserve} multiplexes multiple clients (only alice is shown here) connections. Each client access their own server instance.\relax }}{5}{figure.caption.5}}
\newlabel{fig:9pserve}{{5}{5}{On \texttt {Bermuda}, \texttt {9pserve} multiplexes multiple clients (only alice is shown here) connections. Each client access their own server instance.\relax }{figure.caption.5}{}}
\@writefile{toc}{\contentsline {subsection}{\numberline {2.3}Security Agnosticism with vrs}{5}{subsection.2.3}}
\newlabel{sec:vrs}{{2.3}{5}{Security Agnosticism with vrs}{subsection.2.3}{}}
\@writefile{toc}{\contentsline {subsubsection}{\numberline {2.3.1}What is vrs ?}{5}{subsubsection.2.3.1}}
\@writefile{toc}{\contentsline {subsubsection}{\numberline {2.3.2}vrs implementation}{5}{subsubsection.2.3.2}}
\@writefile{lof}{\contentsline {figure}{\numberline {6}{\ignorespaces Our tool \texttt  {vrs} is needed to ensure the security agnosticism of the server process (here, \texttt  {alice}'s \texttt  {u9fs} in \texttt  {Bermuda})\relax }}{5}{figure.caption.6}}
\newlabel{fig:complete}{{6}{5}{Our tool \texttt {vrs} is needed to ensure the security agnosticism of the server process (here, \texttt {alice}'s \texttt {u9fs} in \texttt {Bermuda})\relax }{figure.caption.6}{}}
\@writefile{toc}{\contentsline {paragraph}{9pserve}{5}{section*.7}}
\citation{secuplan9}
\citation{stunnel}
\@writefile{toc}{\contentsline {paragraph}{Twrite}{6}{section*.8}}
\@writefile{toc}{\contentsline {paragraph}{Tattach}{6}{section*.9}}
\@writefile{toc}{\contentsline {paragraph}{Tauth}{6}{section*.10}}
\@writefile{toc}{\contentsline {subsection}{\numberline {2.4}TLS}{6}{subsection.2.4}}
\newlabel{sec:tls}{{2.4}{6}{TLS}{subsection.2.4}{}}
\@writefile{toc}{\contentsline {section}{\numberline {3}System administration}{6}{section.3}}
\newlabel{sec:sysadmin}{{3}{6}{System administration}{section.3}{}}
\@writefile{toc}{\contentsline {subsection}{\numberline {3.1}PAM and factotum}{6}{subsection.3.1}}
\newlabel{sec:pam}{{3.1}{6}{PAM and factotum}{subsection.3.1}{}}
\@writefile{lof}{\contentsline {figure}{\numberline {7}{\ignorespaces \texttt  {9pserve} multiplexes 9P messages from multiple clients to a single conversation with \texttt  {vrs}. \texttt  {vrs} handles authentication and demultiplexes the client's messages to the corresponding \emph  {network transparent, security agnostic} server.\relax }}{7}{figure.caption.11}}
\newlabel{fig:vrsin}{{7}{7}{\texttt {9pserve} multiplexes 9P messages from multiple clients to a single conversation with \texttt {vrs}. \texttt {vrs} handles authentication and demultiplexes the client's messages to the corresponding \emph {network transparent, security agnostic} server.\relax }{figure.caption.11}{}}
\@writefile{lof}{\contentsline {figure}{\numberline {8}{\ignorespaces R-messages are forwarded back to the clients. Authentication related messages are coming from our \gls {pam} module, other messages come from the client owned server.\relax }}{8}{figure.caption.12}}
\newlabel{fig:vrsout}{{8}{8}{R-messages are forwarded back to the clients. Authentication related messages are coming from our \gls {pam} module, other messages come from the client owned server.\relax }{figure.caption.12}{}}
\citation{gq}
\@writefile{toc}{\contentsline {subsection}{\numberline {3.2}Factotum}{9}{subsection.3.2}}
\newlabel{sec:factotumsysadmin}{{3.2}{9}{Factotum}{subsection.3.2}{}}
\@writefile{toc}{\contentsline {subsection}{\numberline {3.3}NSS and factotum}{9}{subsection.3.3}}
\newlabel{sec:nss}{{3.3}{9}{NSS and factotum}{subsection.3.3}{}}
\@writefile{toc}{\contentsline {section}{\numberline {4}Adding the Guillou-Quisquater ZKIP to factotum}{9}{section.4}}
\newlabel{sec:crypto}{{4}{9}{Adding the Guillou-Quisquater ZKIP to factotum}{section.4}{}}
\@writefile{toc}{\contentsline {section}{\numberline {5}Related and future Works}{9}{section.5}}
\@writefile{toc}{\contentsline {subsection}{\numberline {5.1}Setuid}{9}{subsection.5.1}}
\citation{plan9authlinux}
\@writefile{toc}{\contentsline {subsection}{\numberline {5.2}Namespaces}{10}{subsection.5.2}}
\@writefile{toc}{\contentsline {subsection}{\numberline {5.3}9P vs. HTTP}{10}{subsection.5.3}}
\newlabel{sec:httpover9p}{{5.3}{10}{9P vs. HTTP}{subsection.5.3}{}}
\citation{secuplan9}
\bibstyle{apalike}
\bibdata{biblio}
\bibcite{plan9port}{{1}{2018}{{Cox et~al.}}{{}}}
\@writefile{toc}{\contentsline {subsection}{\numberline {5.4}Sharing actual files}{11}{subsection.5.4}}
\newlabel{sec:filesharing}{{5.4}{11}{Sharing actual files}{subsection.5.4}{}}
\@writefile{toc}{\contentsline {subsection}{\numberline {5.5}FUSE and 9P servers}{11}{subsection.5.5}}
\newlabel{sec:u9p}{{5.5}{11}{FUSE and 9P servers}{subsection.5.5}{}}
\@writefile{toc}{\contentsline {subsection}{\numberline {5.6}Kerberos, LDAP and SSH}{11}{subsection.5.6}}
\newlabel{sec:kerberos}{{5.6}{11}{Kerberos, LDAP and SSH}{subsection.5.6}{}}
\@writefile{toc}{\contentsline {section}{\numberline {6}Conclusion}{11}{section.6}}
\@writefile{toc}{\contentsline {paragraph}{Source code}{11}{section*.13}}
\@writefile{toc}{\contentsline {paragraph}{Thanks and Acknowledgements}{11}{section*.14}}
\bibcite{secuplan9}{{2}{2002}{{Cox et~al.}}{{}}}
\bibcite{plan9authlinux}{{3}{2008}{{Ganti}}{{}}}
\bibcite{gq}{{4}{1988}{{Guillou and Quisquater}}{{}}}
\bibcite{jujjuri2010virtfs}{{5}{2010}{{Jujjuri et~al.}}{{}}}
\bibcite{plan9}{{6}{1995}{{Pike et~al.}}{{}}}
\bibcite{pike1992use}{{7}{1992}{{Pike et~al.}}{{}}}
\bibcite{9p}{{8}{2019}{{Pike et~al.}}{{}}}
\bibcite{szeredi2010fuse}{{9}{2019}{{Szeredi}}{{}}}
\bibcite{stunnel}{{10}{2019}{{Trojnara}}{{}}}
\bibcite{v9fs}{{11}{2005}{{{Van Hensbergen} and Minnich}}{{}}}
