# Fdb version 3
["bibtex main"] 1547142447 "main.aux" "main.bbl" "main" 1547142450
  "/usr/share/texmf-dist/bibtex/bst/base/apalike.bst" 1543696176 24635 604dafcc79f521a11ea73e506e1fbd98 ""
  "biblio.bib" 1547053233 6767 5f38758b8b7001326772b01addef78ec ""
  "main.aux" 1547142418 10750 e99166ab117bf1f457fd2f66f57cf5fe ""
  (generated)
  "main.blg"
  "main.bbl"
["pdflatex"] 1547142447 "main.tex" "main.pdf" "main" 1547142450
  "/usr/share/texmf-dist/fonts/enc/dvips/base/8r.enc" 1543696176 4850 80dc9bab7f31fb78a000ccfed0e27cab ""
  "/usr/share/texmf-dist/fonts/map/fontname/texfonts.map" 1543696176 3332 103109f5612ad95229751940c61aada0 ""
  "/usr/share/texmf-dist/fonts/tfm/adobe/courier/pcrb8r.tfm" 1543696176 1292 3059476c50a24578715759f22652f3d0 ""
  "/usr/share/texmf-dist/fonts/tfm/adobe/courier/pcrb8t.tfm" 1543696176 1384 87406e4336af44af883a035f17f319d9 ""
  "/usr/share/texmf-dist/fonts/tfm/adobe/symbol/psyr.tfm" 1543696176 1408 5937f58aa508ea2cea4901c07d10f5fe ""
  "/usr/share/texmf-dist/fonts/tfm/adobe/times/ptmb7t.tfm" 1543696176 2172 fd0c924230362ff848a33632ed45dc23 ""
  "/usr/share/texmf-dist/fonts/tfm/adobe/times/ptmb8r.tfm" 1543696176 4524 6bce29db5bc272ba5f332261583fee9c ""
  "/usr/share/texmf-dist/fonts/tfm/adobe/times/ptmb8t.tfm" 1543696176 6880 f19b8995b61c334d78fc734065f6b4d4 ""
  "/usr/share/texmf-dist/fonts/tfm/adobe/times/ptmr8r.tfm" 1543696176 4408 25b74d011a4c66b7f212c0cc3c90061b ""
  "/usr/share/texmf-dist/fonts/tfm/adobe/times/ptmr8t.tfm" 1543696176 6672 e3ab9e37e925f3045c9005e6d1473d56 ""
  "/usr/share/texmf-dist/fonts/tfm/adobe/times/ptmri7t.tfm" 1543696176 2288 f478fc8fed18759effb59f3dad7f3084 ""
  "/usr/share/texmf-dist/fonts/tfm/adobe/times/ptmri8r.tfm" 1543696176 4640 532ca3305aad10cc01d769f3f91f1029 ""
  "/usr/share/texmf-dist/fonts/tfm/adobe/times/ptmri8t.tfm" 1543696176 6944 94c55ad86e6ea2826f78ba2240d50df9 ""
  "/usr/share/texmf-dist/fonts/tfm/adobe/times/zpsycmrv.tfm" 1543696176 1028 3fa1c402c2554ead873d55fc7cf9e8b9 ""
  "/usr/share/texmf-dist/fonts/tfm/adobe/times/zptmcmr.tfm" 1543696176 2172 1d00c2a0d10f23031be62329457a870c ""
  "/usr/share/texmf-dist/fonts/tfm/adobe/times/zptmcmrm.tfm" 1543696176 2020 e970c1df148989ada67768f62533fb70 ""
  "/usr/share/texmf-dist/fonts/tfm/adobe/times/zpzccmry.tfm" 1543696176 1592 9cf7d6bd275cdad1ddc3affbde20c2cc ""
  "/usr/share/texmf-dist/fonts/tfm/adobe/zapfchan/pzcmi8r.tfm" 1543696176 3520 74c182562270529cb43f51d7c7d9f1d9 ""
  "/usr/share/texmf-dist/fonts/tfm/jknappen/ec/ecrm1000.tfm" 1543696176 3584 adb004a0c8e7c46ee66cad73671f37b4 ""
  "/usr/share/texmf-dist/fonts/tfm/public/amsfonts/symbols/msam10.tfm" 1543696176 916 f87d7c45f9c908e672703b83b72241a3 ""
  "/usr/share/texmf-dist/fonts/tfm/public/amsfonts/symbols/msbm10.tfm" 1543696176 908 2921f8a10601f252058503cc6570e581 ""
  "/usr/share/texmf-dist/fonts/tfm/public/cm/cmmi10.tfm" 1543696176 1528 abec98dbc43e172678c11b3b9031252a ""
  "/usr/share/texmf-dist/fonts/tfm/public/cm/cmr10.tfm" 1543696176 1296 45809c5a464d5f32c8f98ba97c1bb47f ""
  "/usr/share/texmf-dist/fonts/tfm/public/pslatex/pcrr8rn.tfm" 1543696176 1256 5678cf8cd2607900c94c5b03260620c2 ""
  "/usr/share/texmf-dist/fonts/tfm/public/pslatex/pcrr8tn.tfm" 1543696176 1352 865c1b507bebed671ec0cd60554fbd4c ""
  "/usr/share/texmf-dist/fonts/type1/public/amsfonts/cm/cmmi10.pfb" 1543696176 36299 5f9df58c2139e7edcf37c8fca4bd384d ""
  "/usr/share/texmf-dist/fonts/type1/public/amsfonts/cm/cmsy10.pfb" 1543696176 32569 5e5ddc8df908dea60932f3c484a54c0d ""
  "/usr/share/texmf-dist/fonts/type1/urw/courier/ucrb8a.pfb" 1543696176 50493 4ed1f7e9eba8f1f3e1ec25195460190d ""
  "/usr/share/texmf-dist/fonts/type1/urw/courier/ucrr8a.pfb" 1543696176 45758 19968a0990191524e34e1994d4a31cb6 ""
  "/usr/share/texmf-dist/fonts/type1/urw/times/utmb8a.pfb" 1543696176 44729 811d6c62865936705a31c797a1d5dada ""
  "/usr/share/texmf-dist/fonts/type1/urw/times/utmr8a.pfb" 1543696176 46026 6dab18b61c907687b520c72847215a68 ""
  "/usr/share/texmf-dist/fonts/type1/urw/times/utmri8a.pfb" 1543696176 45458 a3faba884469519614ca56ba5f6b1de1 ""
  "/usr/share/texmf-dist/fonts/vf/adobe/courier/pcrb8t.vf" 1543696176 2184 5d20c8b00cd914e50251116c274e2d0b ""
  "/usr/share/texmf-dist/fonts/vf/adobe/times/ptmb8t.vf" 1543696176 2340 df9c920cc5688ebbf16a93f45ce7bdd3 ""
  "/usr/share/texmf-dist/fonts/vf/adobe/times/ptmr8t.vf" 1543696176 2348 91706c542228501c410c266421fbe30c ""
  "/usr/share/texmf-dist/fonts/vf/adobe/times/ptmri8t.vf" 1543696176 2328 6cd7df782b09b29cfc4d93e55b6b9a59 ""
  "/usr/share/texmf-dist/fonts/vf/adobe/times/zptmcmr.vf" 1543696176 1108 d271d6f9de4122c3f8d3b65666167fac ""
  "/usr/share/texmf-dist/fonts/vf/adobe/times/zptmcmrm.vf" 1543696176 1084 cee5e07a9485d7c583d017cd2ff06934 ""
  "/usr/share/texmf-dist/fonts/vf/adobe/times/zpzccmry.vf" 1543696176 968 23217b5a66d2f57bfa4b2948009646b3 ""
  "/usr/share/texmf-dist/fonts/vf/public/pslatex/pcrr8tn.vf" 1543696176 2984 32538a6687898207c484a0e391881636 ""
  "/usr/share/texmf-dist/tex/context/base/mkii/supp-pdf.mkii" 1543696176 71627 94eb9990bed73c364d7f53f960cc8c5b ""
  "/usr/share/texmf-dist/tex/generic/ifxetex/ifxetex.sty" 1543696176 1458 43ab4710dc82f3edeabecd0d099626b2 ""
  "/usr/share/texmf-dist/tex/generic/oberdiek/gettitlestring.sty" 1543696176 8237 3b62ef1f7e2c23a328c814b3893bc11f ""
  "/usr/share/texmf-dist/tex/generic/oberdiek/hobsub-generic.sty" 1543696176 185392 b99a6d53180e04300c35e18725f31231 ""
  "/usr/share/texmf-dist/tex/generic/oberdiek/hobsub-hyperref.sty" 1543696176 70864 bcd5b216757bd619ae692a151d90085d ""
  "/usr/share/texmf-dist/tex/generic/oberdiek/ifpdf.sty" 1543696176 1300 96620a7d94bc0ceb261d968770ce8315 ""
  "/usr/share/texmf-dist/tex/generic/pgf/basiclayer/pgfcore.code.tex" 1543696176 1006 b103be0bfc8c1682ff1fa9760697a329 ""
  "/usr/share/texmf-dist/tex/generic/pgf/basiclayer/pgfcorearrows.code.tex" 1543696176 43226 167a99346bfe2676e3efcdde2d81fe45 ""
  "/usr/share/texmf-dist/tex/generic/pgf/basiclayer/pgfcoreexternal.code.tex" 1543696176 19302 4f089dc590e71f7331e6d5b5ea85273b ""
  "/usr/share/texmf-dist/tex/generic/pgf/basiclayer/pgfcoregraphicstate.code.tex" 1543696176 6068 edae1e768a7d8d8f0f00e953d2b0153e ""
  "/usr/share/texmf-dist/tex/generic/pgf/basiclayer/pgfcoreimage.code.tex" 1543696176 7041 a891ad72049e17c4e366c40ca37b0ccb ""
  "/usr/share/texmf-dist/tex/generic/pgf/basiclayer/pgfcorelayers.code.tex" 1543696176 4625 40c07e9f6f2f7c674704b3f2055560ce ""
  "/usr/share/texmf-dist/tex/generic/pgf/basiclayer/pgfcoreobjects.code.tex" 1543696176 2631 7eefa6cdbefd8d4e2bad7262cf1094cd ""
  "/usr/share/texmf-dist/tex/generic/pgf/basiclayer/pgfcorepathconstruct.code.tex" 1543696176 43477 81143b33d9ebafdeead07ede13372427 ""
  "/usr/share/texmf-dist/tex/generic/pgf/basiclayer/pgfcorepathprocessing.code.tex" 1543696176 17436 8d99d4113be311daf23deff86991ee7d ""
  "/usr/share/texmf-dist/tex/generic/pgf/basiclayer/pgfcorepathusage.code.tex" 1543696176 20772 c57e34db4aa7b1da013169d04b743eac ""
  "/usr/share/texmf-dist/tex/generic/pgf/basiclayer/pgfcorepatterns.code.tex" 1543696176 9641 711f0edc22c180a5caf168b6e8970057 ""
  "/usr/share/texmf-dist/tex/generic/pgf/basiclayer/pgfcorepoints.code.tex" 1543696176 34516 658a71478d21df554bce9d9cd436203a ""
  "/usr/share/texmf-dist/tex/generic/pgf/basiclayer/pgfcorequick.code.tex" 1543696176 3052 e5672c657232fd63b0a9853b0746297c ""
  "/usr/share/texmf-dist/tex/generic/pgf/basiclayer/pgfcorescopes.code.tex" 1543696176 16669 4ec6e40088fc6de6334b443fe2dc59f0 ""
  "/usr/share/texmf-dist/tex/generic/pgf/basiclayer/pgfcoreshade.code.tex" 1543696176 21541 4cd19f8ff7dd74d5aa7d803a6397af84 ""
  "/usr/share/texmf-dist/tex/generic/pgf/basiclayer/pgfcoretransformations.code.tex" 1543696176 19998 d77fef95c7369827753d17fd11be19c4 ""
  "/usr/share/texmf-dist/tex/generic/pgf/basiclayer/pgfcoretransparency.code.tex" 1543696176 8943 2e2495b057f8f0035b5568394d489963 ""
  "/usr/share/texmf-dist/tex/generic/pgf/frontendlayer/tikz/libraries/tikzlibraryshapes.arrows.code.tex" 1543696176 527 a8d3e34fbab3dc317cf9b06aa5cdc2e4 ""
  "/usr/share/texmf-dist/tex/generic/pgf/frontendlayer/tikz/libraries/tikzlibraryshapes.callouts.code.tex" 1543696176 1158 d6338189706f4587fbc6175c0fb41f17 ""
  "/usr/share/texmf-dist/tex/generic/pgf/frontendlayer/tikz/libraries/tikzlibraryshapes.code.tex" 1543696176 607 40dc15d3efcf10f095866a94bd544bc1 ""
  "/usr/share/texmf-dist/tex/generic/pgf/frontendlayer/tikz/libraries/tikzlibraryshapes.geometric.code.tex" 1543696176 457 ffe9f8b9d108b5f729fd86c78c63589a ""
  "/usr/share/texmf-dist/tex/generic/pgf/frontendlayer/tikz/libraries/tikzlibraryshapes.misc.code.tex" 1543696176 447 e87a0add254801e837fa6c18f61f340f ""
  "/usr/share/texmf-dist/tex/generic/pgf/frontendlayer/tikz/libraries/tikzlibraryshapes.multipart.code.tex" 1543696176 1004 86af66805a9d0b62bd41ea0796a64d50 ""
  "/usr/share/texmf-dist/tex/generic/pgf/frontendlayer/tikz/libraries/tikzlibraryshapes.symbols.code.tex" 1543696176 590 7e11000a24bbee9ae2a4cd0e5d88e58c ""
  "/usr/share/texmf-dist/tex/generic/pgf/frontendlayer/tikz/libraries/tikzlibrarytopaths.code.tex" 1543696176 11599 d694704a88e2f9007c996d3a6a4d629c ""
  "/usr/share/texmf-dist/tex/generic/pgf/frontendlayer/tikz/tikz.code.tex" 1543696176 176652 1c2926908e2b356d454795c35385d580 ""
  "/usr/share/texmf-dist/tex/generic/pgf/libraries/pgflibraryplothandlers.code.tex" 1543696176 32969 dbcfd5a7de6a0f7255c333ef60287d59 ""
  "/usr/share/texmf-dist/tex/generic/pgf/libraries/shapes/pgflibraryshapes.arrows.code.tex" 1543696176 69900 cbd9fafb795a493fb2a3b73713994b78 ""
  "/usr/share/texmf-dist/tex/generic/pgf/libraries/shapes/pgflibraryshapes.callouts.code.tex" 1543696176 28333 0189c4cfb5044e700e6ba65a32295f01 ""
  "/usr/share/texmf-dist/tex/generic/pgf/libraries/shapes/pgflibraryshapes.geometric.code.tex" 1543696176 132566 291d42c3b23fdb5c47e51b36a5fea0c4 ""
  "/usr/share/texmf-dist/tex/generic/pgf/libraries/shapes/pgflibraryshapes.misc.code.tex" 1543696176 37737 ea6cb0b4e615f6048f20ee7153b3cc78 ""
  "/usr/share/texmf-dist/tex/generic/pgf/libraries/shapes/pgflibraryshapes.multipart.code.tex" 1543696176 49891 e74f8181c57d9359c941b6bee48fccc2 ""
  "/usr/share/texmf-dist/tex/generic/pgf/libraries/shapes/pgflibraryshapes.symbols.code.tex" 1543696176 90791 0f3e73cae9286c96d9fcb2161cc223bc ""
  "/usr/share/texmf-dist/tex/generic/pgf/math/pgfmath.code.tex" 1543696176 454 9e9e7c99f4da4f41698be21eaef4938e ""
  "/usr/share/texmf-dist/tex/generic/pgf/math/pgfmathcalc.code.tex" 1543696176 13416 940ea6971d7a65dc440d3479939c66ae ""
  "/usr/share/texmf-dist/tex/generic/pgf/math/pgfmathfloat.code.tex" 1543696176 94097 62ac62cda46eb715560dc27f9ed6e8b1 ""
  "/usr/share/texmf-dist/tex/generic/pgf/math/pgfmathfunctions.base.code.tex" 1543696176 9375 5adc70f722abd29fc250d59e0694b548 ""
  "/usr/share/texmf-dist/tex/generic/pgf/math/pgfmathfunctions.basic.code.tex" 1543696176 22069 7c21c42b15718ce922f36235be360490 ""
  "/usr/share/texmf-dist/tex/generic/pgf/math/pgfmathfunctions.code.tex" 1543696176 8210 a7be5b52ef3d2c087b7dc3d52898b67e ""
  "/usr/share/texmf-dist/tex/generic/pgf/math/pgfmathfunctions.comparison.code.tex" 1543696176 3534 c7f28fbac13616513e513efe93b8569b ""
  "/usr/share/texmf-dist/tex/generic/pgf/math/pgfmathfunctions.integerarithmetics.code.tex" 1543696176 3167 7c9394e79aac27db96a92f9b2792b858 ""
  "/usr/share/texmf-dist/tex/generic/pgf/math/pgfmathfunctions.misc.code.tex" 1543696176 9289 261407875b9dbb0194691c3eb893610f ""
  "/usr/share/texmf-dist/tex/generic/pgf/math/pgfmathfunctions.random.code.tex" 1543696176 7078 946ddf4a7e57219b6afdbad98eb6731b ""
  "/usr/share/texmf-dist/tex/generic/pgf/math/pgfmathfunctions.round.code.tex" 1543696176 2688 139c6abc86761a6190c2f4bef5d752be ""
  "/usr/share/texmf-dist/tex/generic/pgf/math/pgfmathfunctions.trigonometric.code.tex" 1543696176 92284 dcf023dbaa84e6c50e11c2f79fe8cfa6 ""
  "/usr/share/texmf-dist/tex/generic/pgf/math/pgfmathparser.code.tex" 1543696176 35430 046e15fbb65e74d8f0e7945f99741fdb ""
  "/usr/share/texmf-dist/tex/generic/pgf/math/pgfmathutil.code.tex" 1543696176 7099 f44d505bae6c7c2b933cdd63441db4b9 ""
  "/usr/share/texmf-dist/tex/generic/pgf/modules/pgfmodulematrix.code.tex" 1543696176 20934 2328bd2e04520e1ab077ac4ee13b8935 ""
  "/usr/share/texmf-dist/tex/generic/pgf/modules/pgfmoduleplot.code.tex" 1543696176 16203 83cbe1220e389eeee283a6168f9a567b ""
  "/usr/share/texmf-dist/tex/generic/pgf/modules/pgfmoduleshapes.code.tex" 1543696176 42906 d54376d96df1a2ae2d33fb722236d8e9 ""
  "/usr/share/texmf-dist/tex/generic/pgf/systemlayer/pgf.cfg" 1543696176 978 15af626ebd3d4d790aac19170dac04f2 ""
  "/usr/share/texmf-dist/tex/generic/pgf/systemlayer/pgfsys-common-pdf.def" 1543696176 5437 d91f93ed61ecdc57e119849b2d784a0b ""
  "/usr/share/texmf-dist/tex/generic/pgf/systemlayer/pgfsys-pdftex.def" 1543696176 13507 809d848d9262638e1b1705a68a73c566 ""
  "/usr/share/texmf-dist/tex/generic/pgf/systemlayer/pgfsys.code.tex" 1543696176 35113 2ccc50c1c9573e4bac9230d030f9c67c ""
  "/usr/share/texmf-dist/tex/generic/pgf/systemlayer/pgfsysprotocol.code.tex" 1543696176 1983 b5994ebbcee17f1ba3d29bb1bd696fcf ""
  "/usr/share/texmf-dist/tex/generic/pgf/systemlayer/pgfsyssoftpath.code.tex" 1543696176 7881 d459d6057e13d10ce7a227ae44b7295e ""
  "/usr/share/texmf-dist/tex/generic/pgf/utilities/pgffor.code.tex" 1543696176 22211 d696ef78c12269178882d218b2cf191d ""
  "/usr/share/texmf-dist/tex/generic/pgf/utilities/pgfkeys.code.tex" 1543696176 36194 e194ef4e0b396b531a3891feb4b1cc22 ""
  "/usr/share/texmf-dist/tex/generic/pgf/utilities/pgfkeysfiltered.code.tex" 1543696176 33377 af391d6ad1bfcbe2278e191f48e43ba8 ""
  "/usr/share/texmf-dist/tex/generic/pgf/utilities/pgfrcs.code.tex" 1543696176 2536 a3b0529d815a2759ba157b56610a6377 ""
  "/usr/share/texmf-dist/tex/generic/pgf/utilities/pgfutil-common-lists.tex" 1543696176 6833 114eda2cf1d348e0e7e477a1a4dc1941 ""
  "/usr/share/texmf-dist/tex/generic/pgf/utilities/pgfutil-common.tex" 1543696176 16501 ab0135765e27b6b8dae047831fe84818 ""
  "/usr/share/texmf-dist/tex/generic/pgf/utilities/pgfutil-latex.def" 1543696176 5544 294baac9629ba59f675b1f2027ad7136 ""
  "/usr/share/texmf-dist/tex/generic/xkeyval/xkeyval.tex" 1543696176 19231 26434a5656c684f5ffb1f26f98006baa ""
  "/usr/share/texmf-dist/tex/generic/xkeyval/xkvutils.tex" 1543696176 7677 6f5ce7c1124cad7ec57d05b2562bd8fe ""
  "/usr/share/texmf-dist/tex/latex/abstract/abstract.sty" 1543674949 5128 640a4c0ff76b3e578a4c5482af27ec14 ""
  "/usr/share/texmf-dist/tex/latex/amsfonts/amsfonts.sty" 1543696176 5949 3f3fd50a8cc94c3d4cbf4fc66cd3df1c ""
  "/usr/share/texmf-dist/tex/latex/amsfonts/amssymb.sty" 1543696176 13829 94730e64147574077f8ecfea9bb69af4 ""
  "/usr/share/texmf-dist/tex/latex/amsmath/amsbsy.sty" 1543696176 2211 ca7ce284ab93c8eecdc6029dc5ccbd73 ""
  "/usr/share/texmf-dist/tex/latex/amsmath/amsgen.sty" 1543696176 4161 7f6eb9092061a11f87d08ed13515b48d ""
  "/usr/share/texmf-dist/tex/latex/amsmath/amsmath.sty" 1543696176 84354 7292177bb735c466b78634ee4efd537e ""
  "/usr/share/texmf-dist/tex/latex/amsmath/amsopn.sty" 1543696176 4116 32e6abd27229755a83a8b7f18e583890 ""
  "/usr/share/texmf-dist/tex/latex/amsmath/amstext.sty" 1543696176 2432 8ff93b1137020e8f21930562a874ae66 ""
  "/usr/share/texmf-dist/tex/latex/base/article.cls" 1543696176 19823 fcbc01552b07b608574cbf8e1977e0c0 ""
  "/usr/share/texmf-dist/tex/latex/base/fontenc.sty" 1543696176 4573 ae83473dfe6aea3508ab88d22c4457b2 ""
  "/usr/share/texmf-dist/tex/latex/base/ifthen.sty" 1543696176 5161 c004ea5a189d4bdcf42e86754ad75a58 ""
  "/usr/share/texmf-dist/tex/latex/base/inputenc.sty" 1543696176 5052 f2525dfd6e503dc383e90b568c6c9f02 ""
  "/usr/share/texmf-dist/tex/latex/base/size10.clo" 1543696176 8294 b0f177401f895563eb19304d2389582d ""
  "/usr/share/texmf-dist/tex/latex/base/t1enc.def" 1543696176 10008 3208fbcdd7b3f5dd0dda02e6507bf38c ""
  "/usr/share/texmf-dist/tex/latex/breakurl/breakurl.sty" 1543674949 8468 9af34887a0e6e535b004c39238830991 ""
  "/usr/share/texmf-dist/tex/latex/caption/caption.sty" 1543696176 68576 86bbc6bd5a409b3c353fccc1a815fa5b ""
  "/usr/share/texmf-dist/tex/latex/caption/caption3.sty" 1543696176 68510 943558eecf41da4e76fc614fd7f5deff ""
  "/usr/share/texmf-dist/tex/latex/caption/ltcaption.sty" 1543696176 7103 69d108d6f68aad0b59c34ccdaa701351 ""
  "/usr/share/texmf-dist/tex/latex/cite/cite.sty" 1543696176 26218 19edeff8cdc2bcb704e8051dc55eb5a7 ""
  "/usr/share/texmf-dist/tex/latex/datatool/datatool-base.sty" 1543674949 88883 6d35091785415789d436e498969874f9 ""
  "/usr/share/texmf-dist/tex/latex/datatool/datatool-fp.sty" 1543674949 3944 91d1a4dfc297c70772d1d80f3507354a ""
  "/usr/share/texmf-dist/tex/latex/endnotes/endnotes.sty" 1543674949 14473 997ac05a8341a5a211fef7e19b09a4e8 ""
  "/usr/share/texmf-dist/tex/latex/etoolbox/etoolbox.sty" 1543696176 43865 f83cc2fa3767abdb988c7d2cd17c02bf ""
  "/usr/share/texmf-dist/tex/latex/fixme/fixme.sty" 1543674949 26017 34416e5af5011ecf66a9131c55badf07 ""
  "/usr/share/texmf-dist/tex/latex/fp/defpattern.sty" 1543696176 1081 6a8d78d0e6b2d89334f92fd122c1da99 ""
  "/usr/share/texmf-dist/tex/latex/fp/fp-addons.sty" 1543696176 1275 fe903646b72b3e877914d78f2db9ddda ""
  "/usr/share/texmf-dist/tex/latex/fp/fp-basic.sty" 1543696176 29695 b6366b50463dfb367cf560419d0cea8d ""
  "/usr/share/texmf-dist/tex/latex/fp/fp-eqn.sty" 1543696176 11336 afed7aa5dbc4bf246950282b95e522c2 ""
  "/usr/share/texmf-dist/tex/latex/fp/fp-eval.sty" 1543696176 6220 eeeffd00d1235e73c380c6dc9f30ac43 ""
  "/usr/share/texmf-dist/tex/latex/fp/fp-exp.sty" 1543696176 16964 7ba2d4a3882e46a0429106267976ad21 ""
  "/usr/share/texmf-dist/tex/latex/fp/fp-pas.sty" 1543696176 3006 6fd5da0dc83ba1d19525f1fb08dca7df ""
  "/usr/share/texmf-dist/tex/latex/fp/fp-random.sty" 1543696176 3702 6e54ac63212901d59e6ea2a32b0a7689 ""
  "/usr/share/texmf-dist/tex/latex/fp/fp-snap.sty" 1543696176 6519 c1e5d3c6aed32ba782f756d79578d87b ""
  "/usr/share/texmf-dist/tex/latex/fp/fp-trigo.sty" 1543696176 28969 342a2de338e342de95d2551557e50f06 ""
  "/usr/share/texmf-dist/tex/latex/fp/fp-upn.sty" 1543696176 7154 78a835a719e27a484e63f1f98ba4df11 ""
  "/usr/share/texmf-dist/tex/latex/fp/fp.sty" 1543696176 983 d84df22b060ce125f89a32c403dcab31 ""
  "/usr/share/texmf-dist/tex/latex/glossaries/base/glossaries-compatible-307.sty" 1543674949 18579 beb35cf17fbaa229fc2d56a933d732ea ""
  "/usr/share/texmf-dist/tex/latex/glossaries/base/glossaries.sty" 1543674949 241977 3f4a666894010f079a794f9c3658fc79 ""
  "/usr/share/texmf-dist/tex/latex/glossaries/styles/glossary-hypernav.sty" 1543674949 5609 ac430b9a623f082e708576b2f8fde196 ""
  "/usr/share/texmf-dist/tex/latex/glossaries/styles/glossary-list.sty" 1543674949 6495 a7e2300932e24b636520b18e6437c140 ""
  "/usr/share/texmf-dist/tex/latex/glossaries/styles/glossary-long.sty" 1543674949 8909 13895b34b2bdf4402af34f279f310dee ""
  "/usr/share/texmf-dist/tex/latex/glossaries/styles/glossary-super.sty" 1543674949 9926 191e9979bc83bb700cc2163b57c68dc1 ""
  "/usr/share/texmf-dist/tex/latex/glossaries/styles/glossary-tree.sty" 1543674949 12391 00c03045f54eb5c899f62c1ee31ec87a ""
  "/usr/share/texmf-dist/tex/latex/graphics-cfg/color.cfg" 1543696176 1213 620bba36b25224fa9b7e1ccb4ecb76fd ""
  "/usr/share/texmf-dist/tex/latex/graphics-cfg/graphics.cfg" 1543696176 1224 978390e9c2234eab29404bc21b268d1e ""
  "/usr/share/texmf-dist/tex/latex/graphics-def/pdftex.def" 1543696176 17334 520b9b85ad8a2a48eda3f643e27a5179 ""
  "/usr/share/texmf-dist/tex/latex/graphics/epsfig.sty" 1543696176 3390 371f3edde417b3763d7e25ed5bb647ec ""
  "/usr/share/texmf-dist/tex/latex/graphics/graphics.sty" 1543696176 15272 5a97061616e0c8b2aa79c6615ff769f4 ""
  "/usr/share/texmf-dist/tex/latex/graphics/graphicx.sty" 1543696176 9063 d0a305975932762117cd1f06a582f896 ""
  "/usr/share/texmf-dist/tex/latex/graphics/keyval.sty" 1543696176 2591 6404d0c7d28505fb38ce0d86c2e28ae7 ""
  "/usr/share/texmf-dist/tex/latex/graphics/trig.sty" 1543696176 3977 cb9221976ed8a183afad65b59aa8629a ""
  "/usr/share/texmf-dist/tex/latex/hyperref/hpdftex.def" 1543696176 51737 d352883b1cf2d309b61f0be421ee3009 ""
  "/usr/share/texmf-dist/tex/latex/hyperref/hyperref.sty" 1543696176 236385 0c1f990d0a1c996b78144392442091fb ""
  "/usr/share/texmf-dist/tex/latex/hyperref/nameref.sty" 1543696176 12949 81e4e808884a8f0e276b69410e234656 ""
  "/usr/share/texmf-dist/tex/latex/hyperref/pd1enc.def" 1543696176 14098 546dd05d655ce69bf51ef180b7d8a1b1 ""
  "/usr/share/texmf-dist/tex/latex/latexconfig/epstopdf-sys.cfg" 1543696176 678 4792914a8f45be57bb98413425e4c7af ""
  "/usr/share/texmf-dist/tex/latex/latexconfig/hyperref.cfg" 1543696176 235 6031e5765137be07eed51a510b2b8fb7 ""
  "/usr/share/texmf-dist/tex/latex/listings/listings.cfg" 1543696176 1828 dcfaf5610ea22a61c7baac6f2ca3cb43 ""
  "/usr/share/texmf-dist/tex/latex/listings/listings.sty" 1543696176 80394 a25e563baccecba00b03b4a462eb4141 ""
  "/usr/share/texmf-dist/tex/latex/listings/lstlang1.sty" 1543696176 203555 e607ed8f3cb83d0d64c452db0f937212 ""
  "/usr/share/texmf-dist/tex/latex/listings/lstmisc.sty" 1543696176 77021 1c90ba86bdf6da80a6b661f51d7f0175 ""
  "/usr/share/texmf-dist/tex/latex/makecell/makecell.sty" 1543674949 15773 2dd7dde1ec1c2a3d0c85bc3b273e04d8 ""
  "/usr/share/texmf-dist/tex/latex/mfirstuc/mfirstuc.sty" 1543674949 12293 1ffb9177486ec6129ddddbf1de7b2220 ""
  "/usr/share/texmf-dist/tex/latex/microtype/microtype-pdftex.def" 1543696176 48846 b8c9ed2ca71a7e344e0f79f738d33d61 ""
  "/usr/share/texmf-dist/tex/latex/microtype/microtype.cfg" 1543696176 24263 58b62b9b15af10c2a301a884405289a4 ""
  "/usr/share/texmf-dist/tex/latex/microtype/microtype.sty" 1543696176 71031 8c1efead07338247d562f79303165b66 ""
  "/usr/share/texmf-dist/tex/latex/ms/everyshi.sty" 1543696176 3878 6aa7c08ff2621006e0603349e40a30a8 ""
  "/usr/share/texmf-dist/tex/latex/natbib/natbib.sty" 1543696176 45456 1c8843383c0bd05870c45fa0ebea6cc2 ""
  "/usr/share/texmf-dist/tex/latex/oberdiek/auxhook.sty" 1543696176 3834 4363110eb0ef1eb2b71c8fcbcdb6c357 ""
  "/usr/share/texmf-dist/tex/latex/oberdiek/epstopdf-base.sty" 1543696176 12095 5337833c991d80788a43d3ce26bd1c46 ""
  "/usr/share/texmf-dist/tex/latex/oberdiek/grfext.sty" 1543696176 7075 2fe3d848bba95f139de11ded085e74aa ""
  "/usr/share/texmf-dist/tex/latex/oberdiek/kvoptions.sty" 1543696176 22417 1d9df1eb66848aa31b18a593099cf45c ""
  "/usr/share/texmf-dist/tex/latex/oberdiek/rerunfilecheck.sty" 1543696176 9581 023642318cef9f4677efe364de1e2a27 ""
  "/usr/share/texmf-dist/tex/latex/pgf/basiclayer/pgf.sty" 1543696176 1197 8a80cdde14696a9198f1793a55dcf332 ""
  "/usr/share/texmf-dist/tex/latex/pgf/basiclayer/pgfcore.sty" 1543696176 410 5bf12ea7330e5f12c445332a4fe9a263 ""
  "/usr/share/texmf-dist/tex/latex/pgf/compatibility/pgfcomp-version-0-65.sty" 1543696176 21115 facf03b7dbe5ea2f5f1dce1ac84b5d05 ""
  "/usr/share/texmf-dist/tex/latex/pgf/compatibility/pgfcomp-version-1-18.sty" 1543696176 1091 d9163d29def82ee90370c8a63667742c ""
  "/usr/share/texmf-dist/tex/latex/pgf/frontendlayer/tikz.sty" 1543696176 339 592cf35cba3d400082b8a9a5d0199d70 ""
  "/usr/share/texmf-dist/tex/latex/pgf/math/pgfmath.sty" 1543696176 306 0796eafca5e159e6ec2167a6d22d81b1 ""
  "/usr/share/texmf-dist/tex/latex/pgf/systemlayer/pgfsys.sty" 1543696176 443 0b2e781830192df35c0fd357cf13e26e ""
  "/usr/share/texmf-dist/tex/latex/pgf/utilities/pgffor.sty" 1543696176 348 8927fde343487e003b01a4c2ca34073b ""
  "/usr/share/texmf-dist/tex/latex/pgf/utilities/pgfkeys.sty" 1543696176 274 4cad6e665cc93ac2ac979039a94fa1e1 ""
  "/usr/share/texmf-dist/tex/latex/pgf/utilities/pgfrcs.sty" 1543696176 325 2bcd023400636339210573e2b3ee298b ""
  "/usr/share/texmf-dist/tex/latex/pslatex/pslatex.sty" 1543696176 10134 d237c4595fc396f83448a99dcf1331c4 ""
  "/usr/share/texmf-dist/tex/latex/psnfss/mathptmx.sty" 1543696176 4632 cd6d04f090f831ba44222ab7ccd5d2d4 ""
  "/usr/share/texmf-dist/tex/latex/psnfss/omlptmcm.fd" 1543696176 410 9192021592ce021f5236f40ea9cb5ee2 ""
  "/usr/share/texmf-dist/tex/latex/psnfss/omspzccm.fd" 1543696176 328 d517b7c860d57a2003a0a61e6bea8c93 ""
  "/usr/share/texmf-dist/tex/latex/psnfss/omxpsycm.fd" 1543696176 328 a75fc8c20c19f9a869a56a84f006da2b ""
  "/usr/share/texmf-dist/tex/latex/psnfss/ot1ptmcm.fd" 1543696176 327 a287f1198bc35c2e45560f9504f84b3c ""
  "/usr/share/texmf-dist/tex/latex/sttools/flushend.sty" 1543674949 32965 b8b3944582c948eb8dd7c6f4a0e26444 ""
  "/usr/share/texmf-dist/tex/latex/substr/substr.sty" 1543674949 5724 d3505925e87b345f11a5f17d58550dea ""
  "/usr/share/texmf-dist/tex/latex/supertabular/supertabular.sty" 1543674949 14283 563cabe54cdab0459534c65c66672d04 ""
  "/usr/share/texmf-dist/tex/latex/textcase/textcase.sty" 1543696176 2022 79a2c3efd954daff1698214872b6ca46 ""
  "/usr/share/texmf-dist/tex/latex/tools/array.sty" 1543696176 13555 1c149904152e53130811b31763000c97 ""
  "/usr/share/texmf-dist/tex/latex/tools/longtable.sty" 1543696176 12081 a8103ee8653c06c3c5b3fb138f20b5e5 ""
  "/usr/share/texmf-dist/tex/latex/tools/verbatim.sty" 1543696176 7262 cf84171354dfa1855684c0946ff000f1 ""
  "/usr/share/texmf-dist/tex/latex/url/url.sty" 1543696176 12796 8edb7d69a20b857904dd0ea757c14ec9 ""
  "/usr/share/texmf-dist/tex/latex/xcolor/xcolor.sty" 1543696176 55589 34128738f682d033422ca125f82e5d62 ""
  "/usr/share/texmf-dist/tex/latex/xfor/xfor.sty" 1543674949 2689 44855b72da58344b1c1d9b3087bce6ca ""
  "/usr/share/texmf-dist/tex/latex/xkeyval/xkeyval.sty" 1543696176 4962 9c1069474ff71dbc47d5006555e352d3 ""
  "/usr/share/texmf-dist/web2c/texmf.cnf" 1543696176 33301 a3134070eacafb10b1f371612ce2650d ""
  "/var/lib/texmf/fonts/map/pdftex/updmap/pdftex.map" 1545214587 2842348 edc1b8bc31b681518c3c925a1db894a8 ""
  "/var/lib/texmf/web2c/pdftex/pdflatex.fmt" 1545214582 7910429 6fda7850c4f7827e6201b55929743ffd ""
  "acronym.tex" 1546508745 296 292f03e326a5912b4b3a87b664d19cc1 ""
  "diagram.tikz" 1546618524 5881 8ffd69a6a5ca6d22e85e4994679b2080 ""
  "main.aux" 1547142418 10750 e99166ab117bf1f457fd2f66f57cf5fe ""
  "main.bbl" 1547142416 2862 0f5495e38c3e78bac53818ccca8c1ecb "bibtex main"
  "main.tex" 1547142411 46239 f2e36c28849ba49551dec4ccc061142c ""
  "settings.tikz" 1546508722 1644 6808b31afdeed6b034a022c3e8c91f8d ""
  "usenix2019_v3.sty" 1547128619 3712 fa920d0f9f5102b66174152c370c31b3 ""
  "vrs.tikz" 1546937867 10920 1f996df9d27897e7ce6599d36c5a06d9 ""
  (generated)
  "main.lox"
  "main.log"
  "main.ist"
  "main.pdf"
  "main.aux"
  "main.glo"
  "main.acn"
