This is BibTeX, Version 0.99d (TeX Live 2018/Arch Linux)
Capacity: max_strings=100000, hash_size=100000, hash_prime=85009
The top-level auxiliary file: main.aux
The style file: apalike.bst
Database file #1: biblio.bib
Warning--empty publisher in gq
You've used 11 entries,
            1935 wiz_defined-function locations,
            543 strings with 5898 characters,
and the built_in function-call counts, 4574 in all, are:
= -- 441
> -- 217
< -- 9
+ -- 77
- -- 73
* -- 364
:= -- 802
add.period$ -- 34
call.type$ -- 11
change.case$ -- 88
chr.to.int$ -- 11
cite$ -- 12
duplicate$ -- 184
empty$ -- 306
format.name$ -- 89
if$ -- 907
int.to.chr$ -- 1
int.to.str$ -- 0
missing$ -- 7
newline$ -- 56
num.names$ -- 39
pop$ -- 92
preamble$ -- 1
purify$ -- 89
quote$ -- 0
skip$ -- 133
stack$ -- 0
substring$ -- 252
swap$ -- 32
text.length$ -- 3
text.prefix$ -- 0
top$ -- 0
type$ -- 66
warning$ -- 1
while$ -- 36
width$ -- 0
write$ -- 141
(There was 1 warning)
