\relax 
\citation{rfc2119}
\citation{secuplan9}
\citation{rpc}
\citation{manfacto}
\citation{manfacto}
\citation{plan9git}
\citation{plan9gpl}
\citation{man9p}
\citation{spec9p}
\citation{slide9p}
\citation{9pservices}
\@writefile{toc}{\contentsline {section}{\numberline {1}Factotum}{1}}
\@writefile{toc}{\contentsline {subsection}{\numberline {1.1}Protocol description}{1}}
\@writefile{toc}{\contentsline {subsection}{\numberline {1.2}Integration in Plan 9}{1}}
\citation{spec9p}
\citation{9pu}
\citation{spec9p}
\citation{9pe}
\citation{implcatv}
\citation{implem9p}
\citation{v9fsdoc}
\citation{9pe}
\bibstyle{plain}
\bibdata{biblio}
\@writefile{toc}{\contentsline {section}{\numberline {2}9P}{2}}
\@writefile{toc}{\contentsline {subsection}{\numberline {2.1}RFCs}{2}}
\@writefile{toc}{\contentsline {paragraph}{9P2000}{2}}
\@writefile{toc}{\contentsline {paragraph}{9P2000.u}{2}}
\@writefile{toc}{\contentsline {paragraph}{9P2000.L}{2}}
\@writefile{toc}{\contentsline {paragraph}{9P2000.e}{2}}
\@writefile{toc}{\contentsline {subsection}{\numberline {2.2}Reference implementations}{2}}
\@writefile{toc}{\contentsline {paragraph}{9P2000.L}{2}}
\bibcite{9pservices}{1}
\bibcite{9pe}{2}
\bibcite{manfacto}{3}
\bibcite{man9p}{4}
\bibcite{rfc2119}{5}
\bibcite{implcatv}{6}
\bibcite{secuplan9}{7}
\bibcite{plan9git}{8}
\bibcite{implem9p}{9}
\bibcite{spec9p}{10}
\bibcite{slide9p}{11}
\bibcite{rpc}{12}
\bibcite{plan9gpl}{13}
\bibcite{v9fsdoc}{14}
\bibcite{9pu}{15}
\@writefile{toc}{\contentsline {paragraph}{9P2000.e}{3}}
