\relax 
\citation{rfc2119}
\citation{plan9}
\citation{factotum}
\citation{secuplan9}
\@writefile{toc}{\contentsline {section}{\numberline {1}Introduction}{2}}
\citation{plan9port}
\@writefile{toc}{\contentsline {section}{\numberline {2}Authenticating on the network}{3}}
\@writefile{toc}{\contentsline {paragraph}{}{3}}
\@writefile{toc}{\contentsline {paragraph}{}{3}}
\@writefile{toc}{\contentsline {subsection}{\numberline {2.1}Client configuration}{3}}
\@writefile{toc}{\contentsline {subsubsection}{\numberline {2.1.1}Prerequisites}{3}}
\@writefile{toc}{\contentsline {paragraph}{}{3}}
\citation{srv}
\citation{mount}
\citation{srv}
\citation{factotum}
\@writefile{toc}{\contentsline {subsubsection}{\numberline {2.1.2}Running the client}{4}}
\@writefile{toc}{\contentsline {paragraph}{}{4}}
\@writefile{toc}{\contentsline {paragraph}{Connecting to a 9P server}{4}}
\@writefile{toc}{\contentsline {paragraph}{Authenticating with factotum}{4}}
\citation{secuplan9}
\@writefile{toc}{\contentsline {paragraph}{unmounting the ressource}{5}}
\@writefile{toc}{\contentsline {subsection}{\numberline {2.2}Server implementation}{5}}
\@writefile{toc}{\contentsline {subsubsection}{\numberline {2.2.1}Abstract}{5}}
\@writefile{toc}{\contentsline {paragraph}{}{5}}
\citation{plan9port}
\@writefile{toc}{\contentsline {subsubsection}{\numberline {2.2.2}Prerequisite}{6}}
\@writefile{toc}{\contentsline {subsubsection}{\numberline {2.2.3}Server implementation}{6}}
\@writefile{toc}{\contentsline {paragraph}{The vrs multiplexing daemon}{6}}
\@writefile{toc}{\contentsline {paragraph}{Starting vrs}{6}}
\@writefile{toc}{\contentsline {paragraph}{Binding vrs to a network socket}{6}}
\citation{factotum}
\citation{secstore}
\citation{secstored}
\citation{secstored}
\@writefile{toc}{\contentsline {subsubsection}{\numberline {2.2.4}Completing the authentication with factotum}{7}}
\@writefile{toc}{\contentsline {subsection}{\numberline {2.3}Secstore server configuration (optional)}{7}}
\@writefile{toc}{\contentsline {paragraph}{}{8}}
\@writefile{toc}{\contentsline {section}{\numberline {3}Changing the user id}{8}}
\@writefile{toc}{\contentsline {section}{\numberline {4}Simplifying the authentication}{8}}
\@writefile{toc}{\contentsline {subsection}{\numberline {4.1}The use of the PAM library}{8}}
\@writefile{toc}{\contentsline {subsubsection}{\numberline {4.1.1}Delegating the authentication to PAM functions}{8}}
\@writefile{toc}{\contentsline {subsection}{\numberline {4.2}Using Guillou-Quisquater zero-knowledge authentication protocol}{8}}
\citation{gq}
\@writefile{toc}{\contentsline {section}{\numberline {5}Summary}{9}}
\@writefile{toc}{\contentsline {section}{\numberline {6}Conclusion}{10}}
\@writefile{toc}{\contentsline {section}{\numberline {A}Network topology and scripts execution}{11}}
\@writefile{toc}{\contentsline {section}{\numberline {B}The Guillou-Quisquater (GQ) zero-knowledge proof}{12}}
\@writefile{toc}{\contentsline {section}{\numberline {C}Client scripts}{13}}
\@writefile{toc}{\contentsline {subsection}{\numberline {C.1}Mounting/Unmounting the remote shared file tree}{13}}
\@writefile{toc}{\contentsline {subsection}{\numberline {C.2}Starting and stopping factotum agent}{14}}
\@writefile{toc}{\contentsline {section}{\numberline {D}Server scripts}{14}}
\bibstyle{plain}
\bibdata{biblio}
\bibcite{rfc2119}{1}
\bibcite{factotum}{2}
\bibcite{plan9port}{3}
\bibcite{secstore}{4}
\bibcite{secstored}{5}
\bibcite{srv}{6}
\bibcite{secuplan9}{7}
\bibcite{gq}{8}
\bibcite{mount}{9}
\bibcite{plan9}{10}
