\relax 
\catcode `:\active 
\catcode `;\active 
\catcode `!\active 
\catcode `?\active 
\providecommand\@newglossary[4]{}
\@newglossary{main}{glg}{gls}{glo}
\@newglossary{acronym}{alg}{acr}{acn}
\providecommand\@glsorder[1]{}
\providecommand\@istfilename[1]{}
\@istfilename{main.ist}
\@glsorder{word}
\babel@aux{french}{}
\@writefile{toc}{\contentsline {paragraph}{}{1}}
\@writefile{toc}{\contentsline {paragraph}{}{1}}
\@writefile{toc}{\contentsline {paragraph}{}{1}}
\@writefile{toc}{\contentsline {paragraph}{}{4}}
\@writefile{toc}{\contentsline {paragraph}{}{4}}
\@writefile{toc}{\contentsline {paragraph}{}{4}}
\@writefile{toc}{\contentsline {paragraph}{}{4}}
\@writefile{toc}{\contentsline {paragraph}{}{4}}
\@writefile{toc}{\contentsline {paragraph}{}{5}}
\citation{plan9}
\@writefile{toc}{\contentsline {chapter}{\numberline {1}Etude du syst\IeC {\`e}me Plan 9 from Bell Labs}{6}}
\@writefile{lof}{\addvspace {10\p@ }}
\@writefile{lot}{\addvspace {10\p@ }}
\@writefile{toc}{\contentsline {section}{\numberline {1.1}Le successeur de UNIX}{6}}
\@writefile{toc}{\contentsline {paragraph}{}{6}}
\@writefile{toc}{\contentsline {paragraph}{}{6}}
\@writefile{lof}{\contentsline {figure}{\numberline {1.1}{\ignorespaces Le lapin Glenda, mascotte de \textit  {Plan 9 from Bell Labs}, cr\IeC {\'e}\IeC {\'e} par la femme de Rob Pike, Ren\IeC {\'e}e French. Le dessein de Glenda n'est autre que la ``domination totale et compl\IeC {\`e}te du monde conform\IeC {\'e}ment au \textit  {Plan 9}''.}}{7}}
\citation{plan9}
\citation{9p}
\citation{netplan9}
\citation{nsplan9}
\@writefile{toc}{\contentsline {paragraph}{}{8}}
\@writefile{toc}{\contentsline {paragraph}{}{8}}
\@writefile{toc}{\contentsline {section}{\numberline {1.2}La refonte totale des IPC : ``Everything is a File''}{8}}
\@writefile{toc}{\contentsline {paragraph}{}{8}}
\@writefile{toc}{\contentsline {paragraph}{}{8}}
\@writefile{toc}{\contentsline {paragraph}{}{8}}
\@writefile{toc}{\contentsline {paragraph}{}{8}}
\citation{pam}
\citation{secuplan9}
\@writefile{toc}{\contentsline {paragraph}{}{9}}
\@writefile{toc}{\contentsline {paragraph}{}{9}}
\@writefile{lof}{\contentsline {figure}{\numberline {1.2}{\ignorespaces Un r\IeC {\'e}seau Plan 9. Chaque utilisateur compose son propre syst\IeC {\`e}me en acc\IeC {\'e}dant \IeC {\`a} des serveurs de fichiers \IeC {\`a} partir de terminaux. Les calculs lourds sont quant \IeC {\`a} eux r\IeC {\'e}alis\IeC {\'e}s au sein des serveurs CPU.}}{9}}
\newlabel{plan9fig}{{1.2}{9}}
\@writefile{toc}{\contentsline {section}{\numberline {1.3}Une gestion centralis\IeC {\'e}e de l'authentification}{9}}
\@writefile{toc}{\contentsline {paragraph}{}{9}}
\@writefile{toc}{\contentsline {paragraph}{}{9}}
\citation{ssh}
\citation{secuplan9}
\@writefile{toc}{\contentsline {subsection}{\numberline {1.3.1}Principes g\IeC {\'e}n\IeC {\'e}raux}{10}}
\@writefile{toc}{\contentsline {paragraph}{}{10}}
\@writefile{toc}{\contentsline {paragraph}{}{10}}
\@writefile{toc}{\contentsline {paragraph}{}{10}}
\@writefile{toc}{\contentsline {paragraph}{}{10}}
\@writefile{toc}{\contentsline {paragraph}{}{10}}
\citation{raymond2003art}
\citation{plan9port}
\citation{srv}
\citation{9pserve}
\@writefile{toc}{\contentsline {subsection}{\numberline {1.3.2}Comparaison avec PAM pour Linux}{11}}
\@writefile{toc}{\contentsline {paragraph}{}{11}}
\@writefile{toc}{\contentsline {paragraph}{}{11}}
\@writefile{toc}{\contentsline {paragraph}{}{11}}
\@writefile{toc}{\contentsline {section}{\numberline {1.4}Portages pr\IeC {\'e}c\IeC {\'e}dents de Plan 9 sur Linux}{11}}
\@writefile{toc}{\contentsline {paragraph}{}{11}}
\@writefile{toc}{\contentsline {subsection}{\numberline {1.4.1}Portage du protocole 9P : v9fs}{11}}
\@writefile{toc}{\contentsline {paragraph}{}{11}}
\@writefile{toc}{\contentsline {subsection}{\numberline {1.4.2}``Plan 9 from User Space'' : la communaut\IeC {\'e} 9fans}{11}}
\@writefile{toc}{\contentsline {paragraph}{}{11}}
\@writefile{toc}{\contentsline {subsection}{\numberline {1.4.3}Tentatives de portage des serveurs et de l'authentification sur Linux}{12}}
\@writefile{toc}{\contentsline {paragraph}{}{12}}
\@writefile{toc}{\contentsline {paragraph}{}{12}}
\citation{factotum}
\citation{v9fs}
\citation{srv}
\citation{plan9port}
\@writefile{toc}{\contentsline {chapter}{\numberline {2}Une nouvelle gestion des utilisateurs sous Linux}{13}}
\@writefile{lof}{\addvspace {10\p@ }}
\@writefile{lot}{\addvspace {10\p@ }}
\@writefile{toc}{\contentsline {section}{\numberline {2.1}But recherch\IeC {\'e} et cas d'usage typique}{13}}
\@writefile{toc}{\contentsline {paragraph}{}{13}}
\@writefile{toc}{\contentsline {paragraph}{}{13}}
\@writefile{toc}{\contentsline {paragraph}{}{13}}
\@writefile{lof}{\contentsline {figure}{\numberline {2.1}{\ignorespaces But recherch\IeC {\'e}. Alice acc\IeC {\`e}de \IeC {\`a} ses fichiers personnels stock\IeC {\'e}s sur un serveur distant comme s'ils \IeC {\'e}taient enregistr\IeC {\'e}s sur sa machine personnelle. Le dossier \texttt  {alice} sur la machine \texttt  {Bermudes} est poss\IeC {\'e}d\IeC {\'e} par l'utilisateur r\IeC {\'e}seau \texttt  {alice}. }}{14}}
\newlabel{aimfig}{{2.1}{14}}
\@writefile{lof}{\contentsline {figure}{\numberline {2.2}{\ignorespaces Une instance centrale factotum est contact\IeC {\'e}e par les noyaux linux pour identifier \texttt  {alice} sur le r\IeC {\'e}seau.}}{15}}
\newlabel{identifyfig}{{2.2}{15}}
\@writefile{lof}{\contentsline {figure}{\numberline {2.3}{\ignorespaces Authentifier Alice sur \texttt  {Bermudes} revient \IeC {\`a} une conversation entre deux processus factotum.}}{16}}
\newlabel{twofactotumfig}{{2.3}{16}}
\citation{9pserve}
\@writefile{toc}{\contentsline {section}{\numberline {2.2}Assemblage des outils plan9port existants pour obtenir un client compatible Plan 9}{17}}
\@writefile{toc}{\contentsline {paragraph}{}{17}}
\@writefile{toc}{\contentsline {paragraph}{}{17}}
\@writefile{toc}{\contentsline {section}{\numberline {2.3}Impl\IeC {\'e}mentation d'un serveur 9P capable d'authentifier et \\d\IeC {\'e}multiplexer les connexions clientes}{17}}
\@writefile{toc}{\contentsline {paragraph}{}{17}}
\@writefile{toc}{\contentsline {paragraph}{}{17}}
\@writefile{lof}{\contentsline {figure}{\numberline {2.4}{\ignorespaces Sur \texttt  {Atlantide}, \texttt  {srv} s'authentifie et se connecte au serveur agnostique de s\IeC {\'e}curit\IeC {\'e} au nom du client. Puis v9fs monte le r\IeC {\'e}pertoire d'Alice dans l'arborescence d'\texttt  {Atlantide}.}}{18}}
\newlabel{srvfig}{{2.4}{18}}
\@writefile{lof}{\contentsline {figure}{\numberline {2.5}{\ignorespaces Sur \texttt  {Bermudes}, \texttt  {9pserve} poste un service r\IeC {\'e}seau pour rendre accessible \IeC {\`a} des clients distants un serveur transparent du point de vue r\IeC {\'e}seau.}}{19}}
\newlabel{9pservefig}{{2.5}{19}}
\@writefile{toc}{\contentsline {paragraph}{}{20}}
\@writefile{toc}{\contentsline {paragraph}{}{20}}
\@writefile{toc}{\contentsline {section}{\numberline {2.4}Portage du m\IeC {\'e}canisme d'authentification Plan 9}{20}}
\@writefile{toc}{\contentsline {subsection}{\numberline {2.4.1}Nouvelle gestion de l'identit\IeC {\'e}}{20}}
\newlabel{nsspar}{{2.4.1}{20}}
\@writefile{toc}{\contentsline {paragraph}{}{20}}
\@writefile{lof}{\contentsline {figure}{\numberline {2.6}{\ignorespaces Figure compl\IeC {\`e}te. Sur \texttt  {Bermudes}, l'assemblage de \texttt  {9pserve} et \texttt  {vrs} transforme le serveur agnostique de s\IeC {\'e}curit\IeC {\'e} en un processus fils NT-SA.}}{21}}
\newlabel{completefig}{{2.6}{21}}
\citation{secuplan9}
\citation{factotum}
\citation{secuplan9}
\@writefile{toc}{\contentsline {paragraph}{}{22}}
\@writefile{toc}{\contentsline {paragraph}{}{22}}
\@writefile{toc}{\contentsline {subsection}{\numberline {2.4.2}Impl\IeC {\'e}mentation d'un m\IeC {\'e}canisme d'authentification par preuve \IeC {\`a} divulgation nulle de connaissance}{22}}
\@writefile{toc}{\contentsline {paragraph}{}{22}}
\@writefile{toc}{\contentsline {paragraph}{}{22}}
\@writefile{toc}{\contentsline {paragraph}{}{22}}
\@writefile{toc}{\contentsline {paragraph}{}{22}}
\citation{gq}
\citation{gq}
\@writefile{toc}{\contentsline {paragraph}{}{23}}
\@writefile{toc}{\contentsline {paragraph}{}{23}}
\@writefile{toc}{\contentsline {paragraph}{}{23}}
\@writefile{toc}{\contentsline {paragraph}{}{23}}
\@writefile{toc}{\contentsline {paragraph}{}{23}}
\@writefile{toc}{\contentsline {paragraph}{}{23}}
\citation{plan9port}
\@writefile{toc}{\contentsline {paragraph}{}{24}}
\@writefile{toc}{\contentsline {paragraph}{}{24}}
\@writefile{toc}{\contentsline {paragraph}{}{24}}
\@writefile{toc}{\contentsline {paragraph}{}{24}}
\citation{secuplan9}
\@writefile{toc}{\contentsline {paragraph}{}{25}}
\@writefile{toc}{\contentsline {section}{\numberline {2.5}Cr\IeC {\'e}ation d'un serveur d'authentification compatible avec Factotum}{25}}
\@writefile{toc}{\contentsline {subsection}{\numberline {2.5.1}Authentification avec PAM}{25}}
\newlabel{pampar}{{2.5.1}{25}}
\@writefile{toc}{\contentsline {paragraph}{}{25}}
\@writefile{toc}{\contentsline {paragraph}{}{25}}
\citation{pam}
\citation{pam}
\@writefile{toc}{\contentsline {paragraph}{}{26}}
\@writefile{toc}{\contentsline {paragraph}{}{26}}
\@writefile{toc}{\contentsline {paragraph}{}{26}}
\@writefile{toc}{\contentsline {subsection}{\numberline {2.5.2}Cr\IeC {\'e}ation de processus fils et d\IeC {\'e}multiplexage des connexions}{26}}
\newlabel{vrspar}{{2.5.2}{26}}
\@writefile{toc}{\contentsline {paragraph}{}{26}}
\@writefile{toc}{\contentsline {paragraph}{}{26}}
\@writefile{lof}{\contentsline {figure}{\numberline {2.7}{\ignorespaces \texttt  {9pserve} multiplexe plusieurs conversations 9P avec des clients en une unique conversation avec \texttt  {vrs}. Pour ce faire, \texttt  {9pserve} maintient un mappage des tags. \texttt  {vrs} redistribue les connexions authentifi\IeC {\'e}es \IeC {\`a} des serveurs NT-SA.}}{27}}
\newlabel{vrsincome}{{2.7}{27}}
\citation{secuplan9}
\citation{9p}
\citation{9p}
\citation{9p}
\@writefile{toc}{\contentsline {paragraph}{}{28}}
\@writefile{toc}{\contentsline {paragraph}{}{28}}
\@writefile{toc}{\contentsline {paragraph}{}{28}}
\citation{9p}
\@writefile{toc}{\contentsline {paragraph}{}{29}}
\@writefile{toc}{\contentsline {paragraph}{}{29}}
\@writefile{toc}{\contentsline {paragraph}{}{29}}
\@writefile{lof}{\contentsline {figure}{\numberline {2.8}{\ignorespaces \texttt  {vrs} multiplexe plusieurs conversations 9P avec des serveurs NT-SA en une unique conversation avec \texttt  {9pserve}. Pour ce faire, \texttt  {vrs} maintient un mappage des fid. \texttt  {9pserve} redistribue chaque r\IeC {\'e}ponse au bon client.}}{30}}
\newlabel{vrsoutcome}{{2.8}{30}}
\@writefile{toc}{\contentsline {chapter}{\numberline {3}Analyse de la solution propos\IeC {\'e}e}{31}}
\@writefile{lof}{\addvspace {10\p@ }}
\@writefile{lot}{\addvspace {10\p@ }}
\@writefile{toc}{\contentsline {section}{\numberline {3.1}Propri\IeC {\'e}t\IeC {\'e}s mises en oeuvre}{31}}
\@writefile{toc}{\contentsline {subsection}{\numberline {3.1.1}L'agnostisme de s\IeC {\'e}curit\IeC {\'e} (Security agnosticism)}{31}}
\@writefile{toc}{\contentsline {paragraph}{}{31}}
\@writefile{toc}{\contentsline {subsection}{\numberline {3.1.2}La transparence r\IeC {\'e}seau (Network transparency)}{31}}
\@writefile{toc}{\contentsline {paragraph}{}{31}}
\@writefile{toc}{\contentsline {paragraph}{}{31}}
\@writefile{toc}{\contentsline {paragraph}{}{31}}
\@writefile{toc}{\contentsline {subsection}{\numberline {3.1.3}Modularit\IeC {\'e}, simplicit\IeC {\'e} et robustesse}{32}}
\@writefile{toc}{\contentsline {paragraph}{}{32}}
\@writefile{toc}{\contentsline {paragraph}{}{32}}
\@writefile{toc}{\contentsline {paragraph}{}{32}}
\@writefile{toc}{\contentsline {paragraph}{}{32}}
\@writefile{toc}{\contentsline {paragraph}{}{32}}
\@writefile{toc}{\contentsline {paragraph}{}{32}}
\@writefile{toc}{\contentsline {section}{\numberline {3.2}Future works}{32}}
\@writefile{toc}{\contentsline {subsection}{\numberline {3.2.1}Limites identifi\IeC {\'e}es}{32}}
\@writefile{toc}{\contentsline {paragraph}{}{32}}
\citation{plan9authlinux}
\@writefile{toc}{\contentsline {paragraph}{}{33}}
\@writefile{toc}{\contentsline {paragraph}{}{33}}
\@writefile{toc}{\contentsline {paragraph}{}{33}}
\@writefile{toc}{\contentsline {paragraph}{}{33}}
\@writefile{toc}{\contentsline {subsection}{\numberline {3.2.2}Axes d'\IeC {\'e}volution souhait\IeC {\'e}s pour la suite du projet}{33}}
\@writefile{toc}{\contentsline {paragraph}{}{33}}
\@writefile{toc}{\contentsline {paragraph}{}{33}}
\@writefile{toc}{\contentsline {paragraph}{}{33}}
\@writefile{toc}{\contentsline {paragraph}{}{33}}
\citation{knuth2011art}
\@writefile{toc}{\contentsline {chapter}{\numberline {A}Les Laboratoires Bell}{35}}
\@writefile{lof}{\addvspace {10\p@ }}
\@writefile{lot}{\addvspace {10\p@ }}
\@writefile{toc}{\contentsline {paragraph}{}{35}}
\@writefile{toc}{\contentsline {paragraph}{}{35}}
\@writefile{toc}{\contentsline {paragraph}{}{35}}
\@writefile{toc}{\contentsline {chapter}{\numberline {B}La preuve \IeC {\`a} divulgation nulle de connaissance de Guillou-Quisquater (GQ)}{36}}
\@writefile{lof}{\addvspace {10\p@ }}
\@writefile{lot}{\addvspace {10\p@ }}
\newlabel{gqpar}{{B}{36}}
\@writefile{toc}{\contentsline {paragraph}{}{36}}
\@writefile{toc}{\contentsline {paragraph}{}{36}}
\@writefile{toc}{\contentsline {paragraph}{}{36}}
\@writefile{toc}{\contentsline {chapter}{\numberline {C}Le C3N en d\IeC {\'e}tails}{37}}
\@writefile{lof}{\addvspace {10\p@ }}
\@writefile{lot}{\addvspace {10\p@ }}
\@writefile{toc}{\contentsline {paragraph}{}{37}}
\@writefile{toc}{\contentsline {paragraph}{}{37}}
\@writefile{toc}{\contentsline {paragraph}{}{37}}
\bibstyle{alpha}
\bibdata{biblio}
\@writefile{toc}{\contentsline {paragraph}{}{38}}
\@writefile{toc}{\contentsline {paragraph}{}{38}}
\bibcite{9p}{9p18}
\bibcite{9pserve}{9ps18}
\bibcite{secuplan9}{CGP{$^{+}$}02}
\bibcite{plan9port}{Cox18}
\bibcite{factotum}{fac18}
\bibcite{plan9authlinux}{Gan08}
\bibcite{gq}{GQ88}
\bibcite{knuth2011art}{Knu11}
\bibcite{pam}{MK18}
\bibcite{plan9}{PPD{$^{+}$}95}
\bibcite{nsplan9}{PPT{$^{+}$}93}
\bibcite{netplan9}{PW93}
\bibcite{raymond2003art}{Ray03}
\bibcite{srv}{srv18}
\bibcite{v9fs}{VM05}
\bibcite{ssh}{Ylo96}
\newlabel{LastPage}{{}{40}}
\xdef\lastpage@lastpage{40}
\gdef\lastpage@lastpageHy{}
